{
    "page": 1,
    "total_results": 10000,
    "total_pages": 500,
    "results": [
        {
            "popularity": 356.509,
            "vote_count": 471,
            "video": false,
            "poster_path": "\/a4BfxRK8dBgbQqbRxPs8kmLd8LG.jpg",
            "id": 429203,
            "adult": false,
            "backdrop_path": "\/8bRIfPGDnmWgdy65LO8xtdcFmFP.jpg",
            "original_language": "en",
            "original_title": "The Old Man & the Gun",
            "genre_ids": [
                35,
                80,
                18
            ],
            "title": "The Old Man & the Gun",
            "vote_average": 6.4,
            "overview": "The true story of Forrest Tucker, from his audacious escape from San Quentin at the age of 70 to an unprecedented string of heists that confounded authorities and enchanted the public. Wrapped up in the pursuit are a detective, who becomes captivated with Forrest’s commitment to his craft, and a woman, who loves him in spite of his chosen profession.",
            "release_date": "2018-09-28"
        },
        {
            "popularity": 170.874,
            "vote_count": 2208,
            "video": false,
            "poster_path": "\/2bXbqYdUdNVa8VIWXVfclP2ICtT.jpg",
            "id": 420818,
            "adult": false,
            "backdrop_path": "\/1TUg5pO1VZ4B0Q1amk3OlXvlpXV.jpg",
            "original_language": "en",
            "original_title": "The Lion King",
            "genre_ids": [
                28,
                12,
                16,
                18,
                10751
            ],
            "title": "The Lion King",
            "vote_average": 7.2,
            "overview": "Simba idolises his father, King Mufasa, and takes to heart his own royal destiny. But not everyone in the kingdom celebrates the new cub's arrival. Scar, Mufasa's brother—and former heir to the throne—has plans of his own. The battle for Pride Rock is ravaged with betrayal, tragedy and drama, ultimately resulting in Simba's exile. With help from a curious pair of newfound friends, Simba will have to figure out how to grow up and take back what is rightfully his.",
            "release_date": "2019-07-19"
        },
        {
            "popularity": 136.605,
            "vote_count": 31,
            "video": false,
            "poster_path": "\/kTca5fpKhFOKIiG0tz8tynhsWs5.jpg",
            "id": 593961,
            "adult": false,
            "backdrop_path": "\/foMDjFHrTrex6Rr6bApB8TbWlie.jpg",
            "original_language": "tl",
            "original_title": "Hello, Love, Goodbye",
            "genre_ids": [
                18,
                10749
            ],
            "title": "Hello, Love, Goodbye",
            "vote_average": 5.8,
            "overview": "A love story of Joy and Ethan, Filipino workers based in Hong Kong. Ethan, a bartender, is keen on romantically pursuing Joy, a domestic helper who is wholly dedicated to providing for her family.",
            "release_date": "2019-07-31"
        },
        {
            "popularity": 111.15,
            "vote_count": 15,
            "video": false,
            "poster_path": "\/tltTPQeVK2XF3J0CgMc6kOzdF91.jpg",
            "id": 435941,
            "adult": false,
            "backdrop_path": "\/6g0weS4HxtGjPYvSYFlPv1NAopu.jpg",
            "original_language": "ja",
            "original_title": "花鳥籠",
            "genre_ids": [
                18,
                36
            ],
            "title": "The Caged Flower",
            "vote_average": 6.4,
            "overview": "Yoriko Jun turned Miyuki Fukashi’s sensual novel with the same name into a movie. An ordinary office lady and a boy meet on the Internet, they get into a master-slave relationship and are drowned in a world of pleasure.",
            "release_date": "2013-11-23"
        },
        {
            "popularity": 59.065,
            "vote_count": 771,
            "video": false,
            "poster_path": "\/8j58iEBw9pOXFD2L0nt0ZXeHviB.jpg",
            "id": 466272,
            "adult": false,
            "backdrop_path": "\/kKTPv9LKKs5L3oO1y5FNObxAPWI.jpg",
            "original_language": "en",
            "original_title": "Once Upon a Time in Hollywood",
            "genre_ids": [
                28,
                35,
                80,
                18,
                37
            ],
            "title": "Once Upon a Time in Hollywood",
            "vote_average": 7.6,
            "overview": "A faded television actor and his stunt double strive to achieve fame and success in the film industry during the final years of Hollywood's Golden Age in 1969 Los Angeles.",
            "release_date": "2019-07-26"
        },
        {
            "popularity": 49.366,
            "vote_count": 0,
            "video": false,
            "poster_path": "\/mAWBfTDAmfpvQGMVFuzuVl49N1P.jpg",
            "id": 449924,
            "adult": false,
            "backdrop_path": "\/ekP6EVxL81lZ4ivcqPsoZ72rY0h.jpg",
            "original_language": "cn",
            "original_title": "葉問4",
            "genre_ids": [
                28,
                18,
                36
            ],
            "title": "Ip Man 4",
            "vote_average": 0,
            "overview": "Ip Man 4 is an upcoming Hong Kong biographical martial arts film directed by Wilson Yip and produced by Raymond Wong. It is the fourth in the Ip Man film series based on the life of the Wing Chun grandmaster of the same name and features Donnie Yen reprising the role. The film began production in April 2018 and ended in July the same year.",
            "release_date": "2019-10-18"
        },
        {
            "popularity": 44.437,
            "vote_count": 15,
            "video": false,
            "poster_path": "\/lbGzEyESjANpOeD48aROlc3X7aa.jpg",
            "id": 475557,
            "adult": false,
            "backdrop_path": "\/gZWl93sf8AxavYpVT1Un6EF3oCj.jpg",
            "original_language": "en",
            "original_title": "Joker",
            "genre_ids": [
                80,
                18,
                53
            ],
            "title": "Joker",
            "vote_average": 0,
            "overview": "During the 1980s, a failed stand-up comedian is driven insane and turns to a life of crime and chaos in Gotham City while becoming an infamous psychopathic crime figure.",
            "release_date": "2019-10-04"
        },
        {
            "popularity": 44.489,
            "vote_count": 1047,
            "video": false,
            "poster_path": "\/f4FF18ia7yTvHf2izNrHqBmgH8U.jpg",
            "id": 504608,
            "adult": false,
            "backdrop_path": "\/oAr5bgf49vxga9etWoQpAeRMvhp.jpg",
            "original_language": "en",
            "original_title": "Rocketman",
            "genre_ids": [
                18,
                10402
            ],
            "title": "Rocketman",
            "vote_average": 7.5,
            "overview": "The story of Elton John's life, from his years as a prodigy at the Royal Academy of Music through his influential and enduring musical partnership with Bernie Taupin.",
            "release_date": "2019-05-31"
        },
        {
            "popularity": 44.069,
            "vote_count": 19368,
            "video": false,
            "poster_path": "\/nBNZadXqJSdt05SHLqgT0HuC5Gm.jpg",
            "id": 157336,
            "adult": false,
            "backdrop_path": "\/xu9zaAevzQ5nnrsXN6JcahLnG4i.jpg",
            "original_language": "en",
            "original_title": "Interstellar",
            "genre_ids": [
                12,
                18,
                878
            ],
            "title": "Interstellar",
            "vote_average": 8.2,
            "overview": "Interstellar chronicles the adventures of a group of explorers who make use of a newly discovered wormhole to surpass the limitations on human space travel and conquer the vast distances involved in an interstellar voyage.",
            "release_date": "2014-11-05"
        },
        {
            "popularity": 38.426,
            "vote_count": 8508,
            "video": false,
            "poster_path": "\/lHu1wtNaczFPGFDTrjCSzeLPTKN.jpg",
            "id": 424694,
            "adult": false,
            "backdrop_path": "\/xcaSYLBhmDzJ6P14bcKe0KTh3QV.jpg",
            "original_language": "en",
            "original_title": "Bohemian Rhapsody",
            "genre_ids": [
                18,
                10402
            ],
            "title": "Bohemian Rhapsody",
            "vote_average": 8.1,
            "overview": "Singer Freddie Mercury, guitarist Brian May, drummer Roger Taylor and bass guitarist John Deacon take the music world by storm when they form the rock 'n' roll band Queen in 1970. Hit songs become instant classics. When Mercury's increasingly wild lifestyle starts to spiral out of control, Queen soon faces its greatest challenge yet – finding a way to keep the band together amid the success and excess.",
            "release_date": "2018-11-02"
        },
        {
            "popularity": 48.877,
            "vote_count": 3,
            "video": false,
            "poster_path": "\/eU0orGizEpOli4wtN8HtfOOJDlA.jpg",
            "id": 516700,
            "adult": false,
            "backdrop_path": "\/nmHCKQ1GtlPLZVAtBfsYDqVPhPW.jpg",
            "original_language": "id",
            "original_title": "Gundala",
            "genre_ids": [
                28,
                80,
                18
            ],
            "title": "Gundala",
            "vote_average": 8.2,
            "overview": "Sancaka has lived on the streets since his parents left him. Living a hard life, Sancaka survives by thinking about his own safety. When the condition of the city gets worse and injustice rages throughout the country, Sancaka must decide whether he continues to live to look after himself or rise to become their oppressed hero.",
            "release_date": "2019-08-29"
        },
        {
            "popularity": 41.214,
            "vote_count": 12405,
            "video": false,
            "poster_path": "\/c24sv2weTHPsmDa7jEMN0m2P3RT.jpg",
            "id": 315635,
            "adult": false,
            "backdrop_path": "\/vc8bCGjdVp0UbMNLzHnHSLRbBWQ.jpg",
            "original_language": "en",
            "original_title": "Spider-Man: Homecoming",
            "genre_ids": [
                28,
                12,
                18,
                878
            ],
            "title": "Spider-Man: Homecoming",
            "vote_average": 7.4,
            "overview": "Following the events of Captain America: Civil War, Peter Parker, with the help of his mentor Tony Stark, tries to balance his life as an ordinary high school student in Queens, New York City, with fighting crime as his superhero alter ego Spider-Man as a new threat, the Vulture, emerges.",
            "release_date": "2017-07-07"
        },
        {
            "popularity": 34.758,
            "vote_count": 3787,
            "video": false,
            "poster_path": "\/svIDTNUoajS8dLEo7EosxvyAsgJ.jpg",
            "id": 450465,
            "adult": false,
            "backdrop_path": "\/ngBFDOsx13sFXiMweDoL54XYknR.jpg",
            "original_language": "en",
            "original_title": "Glass",
            "genre_ids": [
                18,
                878,
                53
            ],
            "title": "Glass",
            "vote_average": 6.5,
            "overview": "In a series of escalating encounters, former security guard David Dunn uses his supernatural abilities to track Kevin Wendell Crumb, a disturbed man who has twenty-four personalities. Meanwhile, the shadowy presence of Elijah Price emerges as an orchestrator who holds secrets critical to both men.",
            "release_date": "2019-01-18"
        },
        {
            "popularity": 31.669,
            "vote_count": 10906,
            "video": false,
            "poster_path": "\/gdiLTof3rbPDAmPaCf4g6op46bj.jpg",
            "id": 210577,
            "adult": false,
            "backdrop_path": "\/8ZNGBfGoN3uI5Akj5vEUDMxvmGO.jpg",
            "original_language": "en",
            "original_title": "Gone Girl",
            "genre_ids": [
                18,
                9648,
                53
            ],
            "title": "Gone Girl",
            "vote_average": 7.9,
            "overview": "With his wife's disappearance having become the focus of an intense media circus, a man sees the spotlight turned on him when it's suspected that he may not be innocent.",
            "release_date": "2014-10-03"
        },
        {
            "popularity": 20.148,
            "vote_count": 8,
            "video": false,
            "poster_path": "\/gZX9F8Q9QUAKAsGAotlH1fVwHFq.jpg",
            "id": 577970,
            "adult": false,
            "backdrop_path": "\/6kFFYxGNi0sRbjKGIHn2Wev1pnb.jpg",
            "original_language": "id",
            "original_title": "Dilan 1991",
            "genre_ids": [
                18,
                10749
            ],
            "title": "Dilan 1991",
            "vote_average": 5.8,
            "overview": "Dilan & Milea are now dating. But as time goes by, Dilan has to choose between his motorcycle club or Milea.",
            "release_date": "2019-02-28"
        },
        {
            "popularity": 35.676,
            "vote_count": 7003,
            "video": false,
            "poster_path": "\/gajva2L0rPYkEWjzgFlBXCAVBE5.jpg",
            "id": 335984,
            "adult": false,
            "backdrop_path": "\/sAtoMqDVhNDQBc3QJL3RF6hlhGq.jpg",
            "original_language": "en",
            "original_title": "Blade Runner 2049",
            "genre_ids": [
                18,
                878
            ],
            "title": "Blade Runner 2049",
            "vote_average": 7.4,
            "overview": "Thirty years after the events of the first film, a new blade runner, LAPD Officer K, unearths a long-buried secret that has the potential to plunge what's left of society into chaos. K's discovery leads him on a quest to find Rick Deckard, a former LAPD blade runner who has been missing for 30 years.",
            "release_date": "2017-10-06"
        },
        {
            "popularity": 31.292,
            "vote_count": 6355,
            "video": false,
            "poster_path": "\/wrFpXMNBRj2PBiN4Z5kix51XaIZ.jpg",
            "id": 332562,
            "adult": false,
            "backdrop_path": "\/wqtaHWOEZ3rXDJ8c6ZZShulbo18.jpg",
            "original_language": "en",
            "original_title": "A Star Is Born",
            "genre_ids": [
                18,
                10402,
                10749
            ],
            "title": "A Star Is Born",
            "vote_average": 7.5,
            "overview": "Seasoned musician Jackson Maine discovers — and falls in love with — struggling artist Ally. She has just about given up on her dream to make it big as a singer — until Jack coaxes her into the spotlight. But even as Ally's career takes off, the personal side of their relationship is breaking down, as Jack fights an ongoing battle with his own internal demons.",
            "release_date": "2018-10-05"
        },
        {
            "popularity": 28.122,
            "vote_count": 12636,
            "video": false,
            "poster_path": "\/dr6x4GyyegBWtinPBzipY02J2lV.jpg",
            "id": 272,
            "adult": false,
            "backdrop_path": "\/9myrRcegWGGp24mpVfkD4zhUfhi.jpg",
            "original_language": "en",
            "original_title": "Batman Begins",
            "genre_ids": [
                28,
                80,
                18
            ],
            "title": "Batman Begins",
            "vote_average": 7.6,
            "overview": "Driven by tragedy, billionaire Bruce Wayne dedicates his life to uncovering and defeating the corruption that plagues his home, Gotham City.  Unable to work within the system, he instead creates a new identity, a symbol of fear for the criminal underworld - The Batman.",
            "release_date": "2005-06-15"
        },
        {
            "popularity": 25.478,
            "id": 205596,
            "video": false,
            "vote_count": 10778,
            "vote_average": 8.1,
            "title": "The Imitation Game",
            "release_date": "2014-12-19",
            "original_language": "en",
            "original_title": "The Imitation Game",
            "genre_ids": [
                36,
                18,
                53,
                10752
            ],
            "backdrop_path": "\/qcb6z1HpokTOKdjqDTsnjJk0Xvg.jpg",
            "adult": false,
            "overview": "Based on the real life story of legendary cryptanalyst Alan Turing, the film portrays the nail-biting race against time by Turing and his brilliant team of code-breakers at Britain's top-secret Government Code and Cypher School at Bletchley Park, during the darkest days of World War II.",
            "poster_path": "\/noUp0XOqIcmgefRnRZa1nhtRvWO.jpg"
        },
        {
            "popularity": 37.097,
            "vote_count": 1926,
            "video": false,
            "poster_path": "\/u3B2YKUjWABcxXZ6Nm9h10hLUbh.jpg",
            "id": 537915,
            "adult": false,
            "backdrop_path": "\/997ToEZvF2Obp9zNZbY5ELVnmrW.jpg",
            "original_language": "en",
            "original_title": "After",
            "genre_ids": [
                18,
                10749
            ],
            "title": "After",
            "vote_average": 5.9,
            "overview": "Tessa Young is a dedicated student, dutiful daughter and loyal girlfriend to her high school sweetheart. Entering her first semester of college, Tessa's guarded world opens up when she meets Hardin Scott, a mysterious and brooding rebel who makes her question all she thought she knew about herself -- and what she wants out of life.",
            "release_date": "2019-04-12"
        }
    ]
}